Potential of Human flow (general graph case) • HodgePotentialHumanFlow
…
This tutorial demonstrates how to detect significant sinks and
sources of human flow according to the scalar potential in the case of
the Tokyo metropolitan area.

Dataset: origin-destination matrix in Tokyo with trip distance

We used a dataset from the person-trip surveys conducted in 2018 in
the Tokyo metropolitan area, which is publicly available from the Tokyo Metropolitan Region
Transportation Planning Commission.

suppressPackageStartupMessages(library(tidyverse))
od = read_csv("tokyo2018.csv",
              col_types=list(trips = "n", road_distance_in_km="n",.default="c")) 
od
#> # A tibble: 377,610 × 4
#>    origin dest  trips road_distance_in_km
#>    <chr>  <chr> <dbl>               <dbl>
#>  1 0011   0010    990                3.24
#>  2 0012   0010   2445                2.00
#>  3 0020   0010   2793                2.81
#>  4 0021   0010      0                2.07
#>  5 0022   0010      0                2.26
#>  6 0023   0010   1692                3.30
#>  7 0024   0010   1318                4.25
#>  8 0030   0010   2525                4.65
#>  9 0031   0010    893                3.64
#> 10 0032   0010   1426                8.81
#> # ℹ 377,600 more rows
…
We calculate the threshold distance \(\theta\) above which trips are rarely
observed. We show the cumulative distribution of trip distance \(P(X<d)\) as a function of trip distance
\(d\). The threshold \(\theta\) is determined based on criterion
\(P(X<\theta) = 0.99\).

df = od %>% arrange(road_distance_in_km) %>% mutate(cum_trips = cumsum(trips))
df = df %>% mutate( cum_dist = cum_trips / sum(df$trips))
df
#> # A tibble: 377,610 × 6
#>    origin dest  trips road_distance_in_km cum_trips  cum_dist
#>    <chr>  <chr> <dbl>               <dbl>     <dbl>     <dbl>
#>  1 1021   1020    208                1.00       208 0.0000133
#>  2 1020   1021   1643                1.00      1851 0.000118 
#>  3 1022   1021    640                1.04      2491 0.000159 
#>  4 1021   1022    904                1.04      3395 0.000216 
#>  5 3017   3013   1383                1.17      4778 0.000305 
#>  6 3013   3017    829                1.17      5607 0.000358 
#>  7 6023   6021   1820                1.17      7427 0.000474 
#>  8 6021   6023   1035                1.17      8462 0.000540 
#>  9 6061   6060   2601                1.18     11063 0.000705 
#> 10 6060   6061    216                1.18     11279 0.000719 
#> # ℹ 377,600 more rows
…
netflow = od_forward %>% left_join(od_backward,by = join_by(origin, dest)) %>%
  filter(origin > dest) %>% mutate(netflow = trips - back_trips) %>% 
  rename(vertex1 = origin, vertex2=dest)

netflow_selected = netflow %>% 
  filter(road_distance_in_km < thres) %>% 
  select(vertex1,vertex2,netflow)

netflow_selected
#> # A tibble: 117,329 × 3
#>    vertex1 vertex2 netflow
#>    <chr>   <chr>     <dbl>
#>  1 0011    0010        990
#>  2 0012    0010       2323
#>  3 0020    0010       2793
#>  4 0021    0010          0
#>  5 0022    0010          0
#>  6 0023    0010       1692
#>  7 0024    0010       1318
#>  8 0030    0010       2525
#>  9 0031    0010        893
#> 10 0032    0010       1426
#> # ℹ 117,319 more rows
…
